module vodserver

go 1.21.3

require (
	github.com/go-chi/chi/v5 v5.0.12
	github.com/google/uuid v1.6.0
	github.com/redis/go-redis/v9 v9.4.0
	modernc.org/sqlite v1.29.2
)

require (
	github.com/cespare/xxhash/v2 v2.2.0 // indirect
	github.com/dgryski/go-rendezvous v0.0.0-20200823014737-9f7001d12a5f // indirect
	github.com/dustin/go-humanize v1.0.1 // indirect
	github.com/hashicorp/golang-lru/v2 v2.0.7 // indirect
	github.com/mattn/go-isatty v0.0.16 // indirect
	github.com/ncruces/go-strftime v0.1.9 // indirect
	github.com/remyoudompheng/bigfft v0.0.0-20230129092748-24d4a6f8daec // indirect
	golang.org/x/sys v0.16.0 // indirect
	modernc.org/gc/v3 v3.0.0-20240107210532-573471604cb6 // indirect
	modernc.org/libc v1.41.0 // indirect
	modernc.org/mathutil v1.6.0 // indirect
	modernc.org/memory v1.7.2 // indirect
	modernc.org/strutil v1.2.0 // indirect
	modernc.org/token v1.1.0 // indirect
)
